('C:\\Users\\mpalu\\Desktop\\SS_Editor_BUild\\build\\SS Mass '
 'Editor\\PKG-00.pkg',
 {'BINARY': 1,
  'DATA': 1,
  'EXECUTABLE': 1,
  'EXTENSION': 1,
  'PYMODULE': 1,
  'PYSOURCE': 1,
  'PYZ': 0},
 [('PYZ-00.pyz',
   'C:\\Users\\mpalu\\Desktop\\SS_Editor_BUild\\build\\SS Mass '
   'Editor\\PYZ-00.pyz',
   'PYZ'),
  ('struct',
   'C:\\Users\\mpalu\\AppData\\Local\\Programs\\Python\\Python37-32\\lib\\struct.pyo',
   'PYMODULE'),
  ('pyimod01_os_path',
   'C:\\Users\\mpalu\\AppData\\Local\\Programs\\Python\\Python37-32\\lib\\site-packages\\PyInstaller\\loader\\pyimod01_os_path.pyc',
   'PYMODULE'),
  ('pyimod02_archive',
   'C:\\Users\\mpalu\\AppData\\Local\\Programs\\Python\\Python37-32\\lib\\site-packages\\PyInstaller\\loader\\pyimod02_archive.pyc',
   'PYMODULE'),
  ('pyimod03_importers',
   'C:\\Users\\mpalu\\AppData\\Local\\Programs\\Python\\Python37-32\\lib\\site-packages\\PyInstaller\\loader\\pyimod03_importers.pyc',
   'PYMODULE'),
  ('pyiboot01_bootstrap',
   'C:\\Users\\mpalu\\AppData\\Local\\Programs\\Python\\Python37-32\\lib\\site-packages\\PyInstaller\\loader\\pyiboot01_bootstrap.py',
   'PYSOURCE'),
  ('pyi_rth_multiprocessing',
   'C:\\Users\\mpalu\\AppData\\Local\\Programs\\Python\\Python37-32\\lib\\site-packages\\PyInstaller\\loader\\rthooks\\pyi_rth_multiprocessing.py',
   'PYSOURCE'),
  ('pyi_rth_kivy',
   'C:\\Users\\mpalu\\AppData\\Local\\Programs\\Python\\Python37-32\\lib\\site-packages\\PyInstaller\\loader\\rthooks\\pyi_rth_kivy.py',
   'PYSOURCE'),
  ('pyi_rth_pkgres',
   'C:\\Users\\mpalu\\AppData\\Local\\Programs\\Python\\Python37-32\\lib\\site-packages\\PyInstaller\\loader\\rthooks\\pyi_rth_pkgres.py',
   'PYSOURCE'),
  ('pyi_rth_win32comgenpy',
   'C:\\Users\\mpalu\\AppData\\Local\\Programs\\Python\\Python37-32\\lib\\site-packages\\PyInstaller\\loader\\rthooks\\pyi_rth_win32comgenpy.py',
   'PYSOURCE'),
  ('pyi_rth_gstreamer',
   'C:\\Users\\mpalu\\AppData\\Local\\Programs\\Python\\Python37-32\\lib\\site-packages\\PyInstaller\\loader\\rthooks\\pyi_rth_gstreamer.py',
   'PYSOURCE'),
  ('SS_Mass_Editor',
   'C:\\Users\\mpalu\\Desktop\\SS_Editor_BUild\\SS_Mass_Editor.py',
   'PYSOURCE'),
  ('SS Mass Editor.exe.manifest',
   'C:\\Users\\mpalu\\Desktop\\SS_Editor_BUild\\build\\SS Mass Editor\\SS Mass '
   'Editor.exe.manifest',
   'BINARY')],
 True,
 False,
 False)
