('C:\\Users\\mpalu\\AppData\\Local\\Programs\\Python\\Python37-32\\share\\sdl2\\bin',
 None,
 [],
 'DATA',
 [('libFLAC-8.dll',
   'C:\\Users\\mpalu\\AppData\\Local\\Programs\\Python\\Python37-32\\share\\sdl2\\bin\\libFLAC-8.dll',
   'DATA'),
  ('libfreetype-6.dll',
   'C:\\Users\\mpalu\\AppData\\Local\\Programs\\Python\\Python37-32\\share\\sdl2\\bin\\libfreetype-6.dll',
   'DATA'),
  ('libjpeg-9.dll',
   'C:\\Users\\mpalu\\AppData\\Local\\Programs\\Python\\Python37-32\\share\\sdl2\\bin\\libjpeg-9.dll',
   'DATA'),
  ('libmodplug-1.dll',
   'C:\\Users\\mpalu\\AppData\\Local\\Programs\\Python\\Python37-32\\share\\sdl2\\bin\\libmodplug-1.dll',
   'DATA'),
  ('libmpg123-0.dll',
   'C:\\Users\\mpalu\\AppData\\Local\\Programs\\Python\\Python37-32\\share\\sdl2\\bin\\libmpg123-0.dll',
   'DATA'),
  ('libogg-0.dll',
   'C:\\Users\\mpalu\\AppData\\Local\\Programs\\Python\\Python37-32\\share\\sdl2\\bin\\libogg-0.dll',
   'DATA'),
  ('libpng16-16.dll',
   'C:\\Users\\mpalu\\AppData\\Local\\Programs\\Python\\Python37-32\\share\\sdl2\\bin\\libpng16-16.dll',
   'DATA'),
  ('libtiff-5.dll',
   'C:\\Users\\mpalu\\AppData\\Local\\Programs\\Python\\Python37-32\\share\\sdl2\\bin\\libtiff-5.dll',
   'DATA'),
  ('libvorbis-0.dll',
   'C:\\Users\\mpalu\\AppData\\Local\\Programs\\Python\\Python37-32\\share\\sdl2\\bin\\libvorbis-0.dll',
   'DATA'),
  ('libvorbisfile-3.dll',
   'C:\\Users\\mpalu\\AppData\\Local\\Programs\\Python\\Python37-32\\share\\sdl2\\bin\\libvorbisfile-3.dll',
   'DATA'),
  ('libwebp-7.dll',
   'C:\\Users\\mpalu\\AppData\\Local\\Programs\\Python\\Python37-32\\share\\sdl2\\bin\\libwebp-7.dll',
   'DATA'),
  ('LICENSE.FLAC.txt',
   'C:\\Users\\mpalu\\AppData\\Local\\Programs\\Python\\Python37-32\\share\\sdl2\\bin\\LICENSE.FLAC.txt',
   'DATA'),
  ('LICENSE.freetype.txt',
   'C:\\Users\\mpalu\\AppData\\Local\\Programs\\Python\\Python37-32\\share\\sdl2\\bin\\LICENSE.freetype.txt',
   'DATA'),
  ('LICENSE.jpeg.txt',
   'C:\\Users\\mpalu\\AppData\\Local\\Programs\\Python\\Python37-32\\share\\sdl2\\bin\\LICENSE.jpeg.txt',
   'DATA'),
  ('LICENSE.modplug.txt',
   'C:\\Users\\mpalu\\AppData\\Local\\Programs\\Python\\Python37-32\\share\\sdl2\\bin\\LICENSE.modplug.txt',
   'DATA'),
  ('LICENSE.mpg123.txt',
   'C:\\Users\\mpalu\\AppData\\Local\\Programs\\Python\\Python37-32\\share\\sdl2\\bin\\LICENSE.mpg123.txt',
   'DATA'),
  ('LICENSE.ogg-vorbis.txt',
   'C:\\Users\\mpalu\\AppData\\Local\\Programs\\Python\\Python37-32\\share\\sdl2\\bin\\LICENSE.ogg-vorbis.txt',
   'DATA'),
  ('LICENSE.png.txt',
   'C:\\Users\\mpalu\\AppData\\Local\\Programs\\Python\\Python37-32\\share\\sdl2\\bin\\LICENSE.png.txt',
   'DATA'),
  ('LICENSE.tiff.txt',
   'C:\\Users\\mpalu\\AppData\\Local\\Programs\\Python\\Python37-32\\share\\sdl2\\bin\\LICENSE.tiff.txt',
   'DATA'),
  ('LICENSE.webp.txt',
   'C:\\Users\\mpalu\\AppData\\Local\\Programs\\Python\\Python37-32\\share\\sdl2\\bin\\LICENSE.webp.txt',
   'DATA'),
  ('LICENSE.zlib.txt',
   'C:\\Users\\mpalu\\AppData\\Local\\Programs\\Python\\Python37-32\\share\\sdl2\\bin\\LICENSE.zlib.txt',
   'DATA'),
  ('SDL2.dll',
   'C:\\Users\\mpalu\\AppData\\Local\\Programs\\Python\\Python37-32\\share\\sdl2\\bin\\SDL2.dll',
   'DATA'),
  ('SDL2_image.dll',
   'C:\\Users\\mpalu\\AppData\\Local\\Programs\\Python\\Python37-32\\share\\sdl2\\bin\\SDL2_image.dll',
   'DATA'),
  ('SDL2_mixer.dll',
   'C:\\Users\\mpalu\\AppData\\Local\\Programs\\Python\\Python37-32\\share\\sdl2\\bin\\SDL2_mixer.dll',
   'DATA'),
  ('SDL2_ttf.dll',
   'C:\\Users\\mpalu\\AppData\\Local\\Programs\\Python\\Python37-32\\share\\sdl2\\bin\\SDL2_ttf.dll',
   'DATA'),
  ('zlib1.dll',
   'C:\\Users\\mpalu\\AppData\\Local\\Programs\\Python\\Python37-32\\share\\sdl2\\bin\\zlib1.dll',
   'DATA')])
