('C:\\Users\\mpalu\\AppData\\Local\\Programs\\Python\\Python37-32\\share\\glew\\bin',
 None,
 [],
 'DATA',
 [('glew32.dll',
   'C:\\Users\\mpalu\\AppData\\Local\\Programs\\Python\\Python37-32\\share\\glew\\bin\\glew32.dll',
   'DATA')])
