('c:\\users\\mpalu\\appdata\\local\\programs\\python\\python37-32\\lib\\site-packages\\smartsheet_python_sdk-1.3.4.dev5+gd4d215c-py3.7.egg',
 None,
 {'*.pyd', 'EGG-INFO', '*.pyc', '*.py', '*.cp37-win32.pyd', '*.pyw'},
 'DATA',
 [])
